…
``` r
#There are 146,611 rows and 20 columns
```

``` r
#I want to know how many trees there are with a diameter above 5.00
print (filter (vancouver_trees, diameter > 5.00))
```

    ## # A tibble: 95,692 × 20
    ##    tree_id civic_number std_street    genus_name species_name cultivar_name  
    ##      <dbl>        <dbl> <chr>         <chr>      <chr>        <chr>          
    ##  1  149556          494 W 58TH AV     ULMUS      AMERICANA    BRANDON        
    ##  2  149563          450 W 58TH AV     ZELKOVA    SERRATA      <NA>           
    ##  3  149590          858 E 39TH AV     FRAXINUS   AMERICANA    AUTUMN APPLAUSE
    ##  4  149604         5032 WINDSOR ST    ACER       CAMPESTRE    <NA>           
    ##  5  149617         4909 SHERBROOKE ST ACER       PLATANOIDES  COLUMNARE      
    ##  6  149618         4925 SHERBROOKE ST ACER       PLATANOIDES  COLUMNARE      
    ##  7  149619         4969 SHERBROOKE ST ACER       PLATANOIDES  COLUMNARE      
    ##  8  149625          720 E 39TH AV     FRAXINUS   AMERICANA    AUTUMN APPLAUSE
    ##  9  149626          736 E 39TH AV     TILIA      EUCHLORA   X <NA>           
    ## 10  149636          812 E 39TH AV     TILIA      EUCHLORA   X <NA>           
    ## # ℹ 95,682 more rows
    ## # ℹ 14 more variables: common_name <chr>, assigned <chr>, root_barrier <chr>,
    ## #   plant_area <chr>, on_street_block <dbl>, on_street <chr>,
    ## #   neighbourhood_name <chr>, street_side_name <chr>, height_range_id <dbl>,
    ## #   diameter <dbl>, curb <chr>, date_planted <date>, longitude <dbl>,
    ## #   latitude <dbl>
…
``` r
#There are 569 rows and 32 columns
```

``` r
#I want to know how many patients have a tumor area mean above 1000
print (filter (cancer_sample, area_mean > 1000))
```

    ## # A tibble: 92 × 32
    ##          ID diagnosis radius_mean texture_mean perimeter_mean area_mean
    ##       <dbl> <chr>           <dbl>        <dbl>          <dbl>     <dbl>
    ##  1   842302 M                18.0         10.4           123.      1001
    ##  2   842517 M                20.6         17.8           133.      1326
    ##  3 84300903 M                19.7         21.2           130       1203
    ##  4 84358402 M                20.3         14.3           135.      1297
    ##  5   844359 M                18.2         20.0           120.      1040
    ##  6   846226 M                19.2         24.8           132.      1123
    ##  7   849014 M                19.8         22.2           130       1260
    ##  8   851509 M                21.2         23.0           137.      1404
    ##  9   852781 M                18.6         20.2           122.      1094
    ## 10   853401 M                18.6         25.1           125.      1088
    ## # ℹ 82 more rows
    ## # ℹ 26 more variables: smoothness_mean <dbl>, compactness_mean <dbl>,
    ## #   concavity_mean <dbl>, concave_points_mean <dbl>, symmetry_mean <dbl>,
    ## #   fractal_dimension_mean <dbl>, radius_se <dbl>, texture_se <dbl>,
    ## #   perimeter_se <dbl>, area_se <dbl>, smoothness_se <dbl>,
    ## #   compactness_se <dbl>, concavity_se <dbl>, concave_points_se <dbl>,
    ## #   symmetry_se <dbl>, fractal_dimension_se <dbl>, radius_worst <dbl>, …
…
``` r
#There are 20,680 rows and 14 columns
```

``` r
#I want to know how many building permits were made after 2017
print (filter (building_permits, year > 2017))
```

    ## # A tibble: 13,946 × 14
    ##    permit_number issue_date project_value type_of_work                address   
    ##    <chr>         <date>             <dbl> <chr>                       <chr>     
    ##  1 DB-2019-02732 2020-03-04       1403360 New Building                4636 W 3R…
    ##  2 DB-2019-02736 2020-03-04        229420 New Building                4632 W 3R…
    ##  3 DB-2019-04755 2020-03-04        997565 New Building                2251 BONN…
    ##  4 DB-2019-04756 2020-03-04         15000 Demolition / Deconstruction 2253 BONN…
    ##  5 BP-2019-05726 2020-03-05             0 Salvage and Abatement       2259 W 18…
    ##  6 BP-2020-00177 2020-03-05        300000 Addition / Alteration       1090 W GE…
    ##  7 BP-2020-00222 2020-03-05         15000 Addition / Alteration       200 BURRA…
    ##  8 BP-2020-00233 2020-03-05          8000 Addition / Alteration       870 W 7TH…
    ##  9 BP-2020-00335 2020-03-05          8000 Addition / Alteration       151 E 2ND…
    ## 10 DB-2019-04904 2020-03-05        678520 New Building                250 E 54T…
    ## # ℹ 13,936 more rows
    ## # ℹ 9 more variables: project_description <chr>, building_contractor <chr>,
    ## #   building_contractor_address <chr>, applicant <chr>,
    ## #   applicant_address <chr>, property_use <chr>, specific_use_category <chr>,
    ## #   year <dbl>, bi_id <dbl>
…
``` r
#There are 3,455 rows and 37 columns
```

``` r
#I want to know how many building have balconies
print (filter (apt_buildings, balconies == "YES"))
```

    ## # A tibble: 2,361 × 37
    ##       id air_conditioning amenities             balconies barrier_free_accessi…¹
    ##    <dbl> <chr>            <chr>                 <chr>     <chr>                 
    ##  1 10359 NONE             Outdoor rec faciliti… YES       YES                   
    ##  2 10360 NONE             Outdoor pool          YES       NO                    
    ##  3 10361 NONE             <NA>                  YES       NO                    
    ##  4 10362 NONE             <NA>                  YES       YES                   
    ##  5 10366 CENTRAL AIR      Indoor pool , Indoor… YES       NO                    
    ##  6 10367 NONE             <NA>                  YES       YES                   
    ##  7 10368 NONE             Indoor recreation ro… YES       YES                   
    ##  8 10370 NONE             <NA>                  YES       NO                    
    ##  9 10371 NONE             <NA>                  YES       YES                   
    ## 10 10372 NONE             <NA>                  YES       NO                    
    ## # ℹ 2,351 more rows
    ## # ℹ abbreviated name: ¹​barrier_free_accessibilty_entr
    ## # ℹ 32 more variables: bike_parking <chr>, exterior_fire_escape <chr>,
    ## #   fire_alarm <chr>, garbage_chutes <chr>, heating_type <chr>, intercom <chr>,
    ## #   laundry_room <chr>, locker_or_storage_room <chr>, no_of_elevators <dbl>,
    ## #   parking_type <chr>, pets_allowed <chr>, prop_management_company_name <chr>,
    ## #   property_type <chr>, rsn <dbl>, separate_gas_meters <chr>, …
…
``` r
#This shows me that most of the diameters are under 50 with majority being around 10.So if I needed to cut some trees I could filter for diameters just under 25 as that is where I would find the majority of them. For this plot I used the diameter for the x axis to view the counts in a histogram using ggplot to look at the distribution. 
```

# I also want to look at trees in my own neighbourhood to see what tree’s I could look at during an everyday walk in Kitsilano (Filter observations in your data according to your own criteria \#5)

``` r
print (filter (vancouver_trees, neighbourhood_name == "KITSILANO"))
```

    ## # A tibble: 8,115 × 20
    ##    tree_id civic_number std_street genus_name species_name  cultivar_name   
    ##      <dbl>        <dbl> <chr>      <chr>      <chr>         <chr>           
    ##  1  155373         1900 CYPRESS ST PRUNUS     CERASIFERA    NIGRA           
    ##  2  155413         2485 W BROADWAY ULMUS      AMERICANA     BRANDON         
    ##  3  155445         2408 W 13TH AV  ACER       FREEMANI   X  SCARLET SENTINEL
    ##  4  155446         2246 W 15TH AV  ACER       RUBRUM        KARPICK         
    ##  5  155566         2995 W 10TH AV  CATALPA    BIGNONIOIDES  <NA>            
    ##  6  156222         2688 VINE ST    QUERCUS    ROBUR         <NA>            
    ##  7  156380         2983 YEW ST     FRAXINUS   PENNSYLVANICA PATMORE         
    ##  8  156382         2983 YEW ST     FRAXINUS   PENNSYLVANICA PATMORE         
    ##  9  156390         2375 W 10TH AV  ACER       CAMPESTRE     <NA>            
    ## 10  156413         2835 YEW ST     FRAXINUS   AMERICANA     AUTUMN APPLAUSE 
    ## # ℹ 8,105 more rows
    ## # ℹ 14 more variables: common_name <chr>, assigned <chr>, root_barrier <chr>,
    ## #   plant_area <chr>, on_street_block <dbl>, on_street <chr>,
    ## #   neighbourhood_name <chr>, street_side_name <chr>, height_range_id <dbl>,
    ## #   diameter <dbl>, curb <chr>, date_planted <date>, longitude <dbl>,
    ## #   latitude <dbl>

``` r
#This shows me that there are 8115 documented trees in the kitsilano neighbourhood that I can walk to and see as the filter function helped me cater my search to just trees near my house. 

vancouver_trees %>%
  group_by(neighbourhood_name = "KITSILANO") %>%
    top_n(1, species_name)
```

    ## # A tibble: 1,613 × 20
    ## # Groups:   neighbourhood_name [1]
    ##    tree_id civic_number std_street       genus_name species_name cultivar_name
    ##      <dbl>        <dbl> <chr>            <chr>      <chr>        <chr>        
    ##  1  156588         2306 KITCHENER ST     MALUS      ZUMI         CALOCARPA    
    ##  2  157159         4089 SELKIRK ST       MALUS      ZUMI         CALOCARPA    
    ##  3  157816          515 SALSBURY DRIVE   MALUS      ZUMI         CALOCARPA    
    ##  4  157818          520 SALSBURY DRIVE   MALUS      ZUMI         CALOCARPA    
    ##  5  158748         1037 W KING EDWARD AV MALUS      ZUMI         CALOCARPA    
    ##  6  158750         1063 W KING EDWARD AV MALUS      ZUMI         CALOCARPA    
    ##  7  158751         4050 OSLER ST         MALUS      ZUMI         CALOCARPA    
    ##  8  159644         3793 W 18TH AV        MALUS      ZUMI         CALOCARPA    
    ##  9  159645         6049 DUNBAR ST        MALUS      ZUMI         CALOCARPA    
    ## 10  159698         1808 E 2ND AV         MALUS      ZUMI         CALOCARPA    
    ## # ℹ 1,603 more rows
    ## # ℹ 14 more variables: common_name <chr>, assigned <chr>, root_barrier <chr>,
    ## #   plant_area <chr>, on_street_block <dbl>, on_street <chr>,
    ## #   neighbourhood_name <chr>, street_side_name <chr>, height_range_id <dbl>,
    ## #   diameter <dbl>, curb <chr>, date_planted <date>, longitude <dbl>,
    ## #   latitude <dbl>
…
